{
    "variables": {
        "source_image": "unknown",
        "image_name": "unknown",
        "build_flavor": "16",
        "factory_network": "{{ env `FACTORY_NETWORK_ID` }}",
        "factory_security_group_name": "{{ env `FACTORY_SECURITY_GROUP_NAME` }}",
        "bundle_path": "unknown"
    },
    "builders": [
        {
            "type": "openstack",
            "ssh_username": "cloud",
            "flavor": "{{ user `build_flavor` }}",
            "image_name": "{{ user `image_name` }}",
            "source_image": "{{ user `source_image` }}",
            "security_groups": ["{{ user `factory_security_group_name` }}"],
            "networks": "{{ user `factory_network` }}",
            "communicator": "ssh",
            "ssh_pty": true,
            "ssh_timeout": "10m"
        }
    ],
    "provisioners": [
        {
            "type": "shell",
            "inline": [
                "sudo DEBIAN_FRONTEND=noninteractive apt-get -o Dpkg::Options::=\"--force-confold\" purge python-pip -y",
                "sudo apt-get update",
                "sudo DEBIAN_FRONTEND=noninteractive apt-get -o Dpkg::Options::=\"--force-confold\" upgrade -y",
                "sudo DEBIAN_FRONTEND=noninteractive apt-get -o Dpkg::Options::=\"--force-confold\" install aptitude git gcc python-dev python-setuptools libssl-dev libffi-dev -y",
                "for i in 1 2 3 4 5; do sudo easy_install pip && break || sleep 2; done",
                "sudo ln -s /usr/local/bin/pip /usr/bin/pip",
                "sudo pip install -U pip ansible",
                "sudo rm -rf /home/cloud/.ssh/authorized_keys",
                "sudo rm -rf /var/log/cloud-init*",
                "sudo rm -rf /home/cloud/known_hosts/"
            ]
        },
        {
            "type": "ansible-local",
            "extra_arguments": ["-vvv"],
            "playbook_dir": "{{ user `bundle_path` }}/ansible",
            "playbook_file": "{{ user `bundle_path` }}/ansible/bootstrap.yml",
            "inventory_file": "ansible_local_inventory"
        },
        {
            "type": "shell",
            "inline": [
                "sudo DEBIAN_FRONTEND=noninteractive apt-get -o Dpkg::Options::=\"--force-confold\" autoremove -y",
                "sudo DEBIAN_FRONTEND=noninteractive apt-get -o Dpkg::Options::=\"--force-confold\" clean -y",
                "sudo rm -rf /home/cloud/.ansible",
                "sudo sync"
            ]
        }
    ]
}
